module gitlab.com/ekdiaz08/vascar

go 1.18

require (
	github.com/go-chi/chi v1.5.4
	github.com/joho/godotenv v1.4.0
	github.com/mattn/go-sqlite3 v1.14.14
	github.com/stretchr/testify v1.8.0
)

require (
	github.com/davecgh/go-spew v1.1.1 // indirect
	github.com/pmezard/go-difflib v1.0.0 // indirect
	gopkg.in/yaml.v3 v3.0.1 // indirect
)
